{
    "groups": [
        {
            "title": "Reference",
            "pages": [
                {
                    "title": "Changelog",
                    "source": "CHANGELOG.md"
                },
                {
                    "title": "Coverage",
                    "source": "documentation/coverage.md"
                }
            ]
        }
    ],
    "theme": "pages-plugin"
}